{
    "geocoded_waypoints" : [
                            {
                            "geocoder_status" : "OK",
                            "place_id" : "EjMyMDEtMjA5IEUgQ29tbWVyY2lhbCBTdCwgU3ByaW5nZmllbGQsIE1PIDY1ODAzLCBVU0E",
                            "types" : [ "street_address" ]
                            },
                            {
                            "geocoder_status" : "OK",
                            "place_id" : "ChIJnbfCkeFiz4cR5ZVyvHayQSc",
                            "types" : [ "street_address" ]
                            }
                            ],
    "routes" : [
                {
                "bounds" : {
                "northeast" : {
                "lat" : 37.2295804,
                "lng" : -93.28119509999999
                },
                "southwest" : {
                "lat" : 37.2110434,
                "lng" : -93.29241429999999
                }
                },
                "copyrights" : "Map data ©2015 Google",
                "legs" : [
                          {
                          "distance" : {
                          "text" : "1.9 mi",
                          "value" : 2985
                          },
                          "duration" : {
                          "text" : "7 mins",
                          "value" : 391
                          },
                          "end_address" : "411 N Sherman Pkwy, Springfield, MO 65802, USA",
                          "end_location" : {
                          "lat" : 37.2110434,
                          "lng" : -93.28129939999999
                          },
                          "start_address" : "201-209 E Commercial St, Springfield, MO 65803, USA",
                          "start_location" : {
                          "lat" : 37.2295804,
                          "lng" : -93.2919891
                          },
                          "steps" : [
                                     {
                                     "distance" : {
                                     "text" : "36 ft",
                                     "value" : 11
                                     },
                                     "duration" : {
                                     "text" : "1 min",
                                     "value" : 2
                                     },
                                     "end_location" : {
                                     "lat" : 37.2295716,
                                     "lng" : -93.29210879999999
                                     },
                                     "html_instructions" : "Head \u003cb\u003ewest\u003c/b\u003e on \u003cb\u003eE Commercial St\u003c/b\u003e toward \u003cb\u003eN Boonville Ave\u003c/b\u003e",
                                     "polyline" : {
                                     "points" : "{kfbF|alxP@V"
                                     },
                                     "start_location" : {
                                     "lat" : 37.2295804,
                                     "lng" : -93.2919891
                                     },
                                     "travel_mode" : "DRIVING"
                                     },
                                     {
                                     "distance" : {
                                     "text" : "1.0 mi",
                                     "value" : 1563
                                     },
                                     "duration" : {
                                     "text" : "4 mins",
                                     "value" : 237
                                     },
                                     "end_location" : {
                                     "lat" : 37.2155247,
                                     "lng" : -93.2923881
                                     },
                                     "html_instructions" : "Turn \u003cb\u003eleft\u003c/b\u003e onto \u003cb\u003eN Boonville Ave\u003c/b\u003e",
                                     "maneuver" : "turn-left",
                                     "polyline" : {
                                     "points" : "ykfbFtblxPrA?|AAhA?lAAdEB^AxBCpBBrDD|@@dB@v@@dA?J?x@@tC@X@bBBrA@`@@R@jBF~@Bd@@`CDbABV?xAB|CDxD?f@?xAA\\A`@?"
                                     },
                                     "start_location" : {
                                     "lat" : 37.2295716,
                                     "lng" : -93.29210879999999
                                     },
                                     "travel_mode" : "DRIVING"
                                     },
                                     {
                                     "distance" : {
                                     "text" : "0.1 mi",
                                     "value" : 226
                                     },
                                     "duration" : {
                                     "text" : "1 min",
                                     "value" : 28
                                     },
                                     "end_location" : {
                                     "lat" : 37.2153675,
                                     "lng" : -93.2899826
                                     },
                                     "html_instructions" : "Turn \u003cb\u003eleft\u003c/b\u003e onto \u003cb\u003eE Chestnut Expy\u003c/b\u003e",
                                     "maneuver" : "turn-left",
                                     "polyline" : {
                                     "points" : "_tcbFldlxPT@?oA@{D@w@?u@@W?W@y@"
                                     },
                                     "start_location" : {
                                     "lat" : 37.2155247,
                                     "lng" : -93.2923881
                                     },
                                     "travel_mode" : "DRIVING"
                                     },
                                     {
                                     "distance" : {
                                     "text" : "0.5 mi",
                                     "value" : 763
                                     },
                                     "duration" : {
                                     "text" : "1 min",
                                     "value" : 72
                                     },
                                     "end_location" : {
                                     "lat" : 37.214766,
                                     "lng" : -93.28145029999999
                                     },
                                     "html_instructions" : "Continue straight to stay on \u003cb\u003eE Chestnut Expy\u003c/b\u003e",
                                     "maneuver" : "straight",
                                     "polyline" : {
                                     "points" : "ascbFjukxPBcBBcA@a@?Q@[Ds@Ds@Fu@Fq@PsA?KDSDYNq@DY@CDWBYD]@[B_@?m@?sAAmC?u@?s@?sA?u@@s@@mA@y@?[?{C"
                                     },
                                     "start_location" : {
                                     "lat" : 37.2153675,
                                     "lng" : -93.2899826
                                     },
                                     "travel_mode" : "DRIVING"
                                     },
                                     {
                                     "distance" : {
                                     "text" : "0.3 mi",
                                     "value" : 422
                                     },
                                     "duration" : {
                                     "text" : "1 min",
                                     "value" : 52
                                     },
                                     "end_location" : {
                                     "lat" : 37.2110434,
                                     "lng" : -93.28129939999999
                                     },
                                     "html_instructions" : "Turn \u003cb\u003eright\u003c/b\u003e onto \u003cb\u003eN John Q Hammons Pkwy\u003c/b\u003e/\u003cb\u003eN Sherman Pkwy\u003c/b\u003e\u003cdiv style=\"font-size:0.9em\"\u003eContinue to follow N Sherman Pkwy\u003c/div\u003e\u003cdiv style=\"font-size:0.9em\"\u003eDestination will be on the right\u003c/div\u003e",
                                     "maneuver" : "turn-right",
                                     "polyline" : {
                                     "points" : "iocbF``jxPJUDGFEJEPC\\CjILj@?F?F?d@@X?bA@v@@nA?"
                                     },
                                     "start_location" : {
                                     "lat" : 37.214766,
                                     "lng" : -93.28145029999999
                                     },
                                     "travel_mode" : "DRIVING"
                                     }
                                     ],
                          "via_waypoint" : []
                          }
                          ],
                "overview_polyline" : {
                "points" : "{kfbF|alxP@VrA?fDArG@xCEhMLbEBfJH`FNbGJvFH`F?vBCv@@ByJFmEFsCZoE\\mC\\gBNsBAeI@qFBcD?{CJULM\\I\\CjILr@?l@@dFB"
                },
                "summary" : "N Boonville Ave and E Chestnut Expy",
                "warnings" : [],
                "waypoint_order" : []
                }
                ],
    "status" : "OK"
}